design_1.v,verilog,xil_defaultlib,../../../bd/design_1/sim/design_1.v,incdir="$ref_dir/../../../../dma_exp_4.srcs/sources_1/bd/design_1/ipshared/979d/hdl/verilog"incdir="$ref_dir/../../../../dma_exp_4.srcs/sources_1/bd/design_1/ipshared/b2d0/hdl/verilog"incdir="$ref_dir/../../../../dma_exp_4.srcs/sources_1/bd/design_1/ipshared/8713/hdl"incdir="$ref_dir/../../../../dma_exp_4.srcs/sources_1/bd/design_1/ipshared/85a3"incdir="$ref_dir/../../../../dma_exp_4.srcs/sources_1/bd/design_1/ipshared/ec67/hdl"incdir="$ref_dir/../../../../dma_exp_4.srcs/sources_1/bd/design_1/ipshared/00a3/hdl"incdir="../../../../dma_exp_4.srcs/sources_1/bd/design_1/ipshared/979d/hdl/verilog"incdir="../../../../dma_exp_4.srcs/sources_1/bd/design_1/ipshared/b2d0/hdl/verilog"incdir="../../../../dma_exp_4.srcs/sources_1/bd/design_1/ipshared/8713/hdl"incdir="../../../../dma_exp_4.srcs/sources_1/bd/design_1/ipshared/85a3"incdir="../../../../dma_exp_4.srcs/sources_1/bd/design_1/ipshared/ec67/hdl"incdir="../../../../dma_exp_4.srcs/sources_1/bd/design_1/ipshared/00a3/hdl"incdir="../../../../dma_exp_4.srcs/sources_1/bd/design_1/ip/design_1_zynq_ultra_ps_e_0_1/sim_tlm"incdir="../../../../dma_exp_4.srcs/sources_1/bd/design_1/ip/design_1_zynq_ultra_ps_e_0_1"
design_1_axi_dma_0_1.vhd,vhdl,xil_defaultlib,../../../bd/design_1/ip/design_1_axi_dma_0_1/sim/design_1_axi_dma_0_1.vhd,incdir="$ref_dir/../../../../dma_exp_4.srcs/sources_1/bd/design_1/ipshared/979d/hdl/verilog"incdir="$ref_dir/../../../../dma_exp_4.srcs/sources_1/bd/design_1/ipshared/b2d0/hdl/verilog"incdir="$ref_dir/../../../../dma_exp_4.srcs/sources_1/bd/design_1/ipshared/8713/hdl"incdir="$ref_dir/../../../../dma_exp_4.srcs/sources_1/bd/design_1/ipshared/85a3"incdir="$ref_dir/../../../../dma_exp_4.srcs/sources_1/bd/design_1/ipshared/ec67/hdl"incdir="$ref_dir/../../../../dma_exp_4.srcs/sources_1/bd/design_1/ipshared/00a3/hdl"incdir="../../../../dma_exp_4.srcs/sources_1/bd/design_1/ipshared/979d/hdl/verilog"incdir="../../../../dma_exp_4.srcs/sources_1/bd/design_1/ipshared/b2d0/hdl/verilog"incdir="../../../../dma_exp_4.srcs/sources_1/bd/design_1/ipshared/8713/hdl"incdir="../../../../dma_exp_4.srcs/sources_1/bd/design_1/ipshared/85a3"incdir="../../../../dma_exp_4.srcs/sources_1/bd/design_1/ipshared/ec67/hdl"incdir="../../../../dma_exp_4.srcs/sources_1/bd/design_1/ipshared/00a3/hdl"incdir="../../../../dma_exp_4.srcs/sources_1/bd/design_1/ip/design_1_zynq_ultra_ps_e_0_1/sim_tlm"incdir="../../../../dma_exp_4.srcs/sources_1/bd/design_1/ip/design_1_zynq_ultra_ps_e_0_1"
bd_6f02.v,verilog,xil_defaultlib,../../../bd/design_1/ip/design_1_axi_smc_1/bd_0/sim/bd_6f02.v,incdir="$ref_dir/../../../../dma_exp_4.srcs/sources_1/bd/design_1/ipshared/979d/hdl/verilog"incdir="$ref_dir/../../../../dma_exp_4.srcs/sources_1/bd/design_1/ipshared/b2d0/hdl/verilog"incdir="$ref_dir/../../../../dma_exp_4.srcs/sources_1/bd/design_1/ipshared/8713/hdl"incdir="$ref_dir/../../../../dma_exp_4.srcs/sources_1/bd/design_1/ipshared/85a3"incdir="$ref_dir/../../../../dma_exp_4.srcs/sources_1/bd/design_1/ipshared/ec67/hdl"incdir="$ref_dir/../../../../dma_exp_4.srcs/sources_1/bd/design_1/ipshared/00a3/hdl"incdir="../../../../dma_exp_4.srcs/sources_1/bd/design_1/ipshared/979d/hdl/verilog"incdir="../../../../dma_exp_4.srcs/sources_1/bd/design_1/ipshared/b2d0/hdl/verilog"incdir="../../../../dma_exp_4.srcs/sources_1/bd/design_1/ipshared/8713/hdl"incdir="../../../../dma_exp_4.srcs/sources_1/bd/design_1/ipshared/85a3"incdir="../../../../dma_exp_4.srcs/sources_1/bd/design_1/ipshared/ec67/hdl"incdir="../../../../dma_exp_4.srcs/sources_1/bd/design_1/ipshared/00a3/hdl"incdir="../../../../dma_exp_4.srcs/sources_1/bd/design_1/ip/design_1_zynq_ultra_ps_e_0_1/sim_tlm"incdir="../../../../dma_exp_4.srcs/sources_1/bd/design_1/ip/design_1_zynq_ultra_ps_e_0_1"
bd_6f02_one_0.v,verilog,xil_defaultlib,../../../bd/design_1/ip/design_1_axi_smc_1/bd_0/ip/ip_0/sim/bd_6f02_one_0.v,incdir="$ref_dir/../../../../dma_exp_4.srcs/sources_1/bd/design_1/ipshared/979d/hdl/verilog"incdir="$ref_dir/../../../../dma_exp_4.srcs/sources_1/bd/design_1/ipshared/b2d0/hdl/verilog"incdir="$ref_dir/../../../../dma_exp_4.srcs/sources_1/bd/design_1/ipshared/8713/hdl"incdir="$ref_dir/../../../../dma_exp_4.srcs/sources_1/bd/design_1/ipshared/85a3"incdir="$ref_dir/../../../../dma_exp_4.srcs/sources_1/bd/design_1/ipshared/ec67/hdl"incdir="$ref_dir/../../../../dma_exp_4.srcs/sources_1/bd/design_1/ipshared/00a3/hdl"incdir="../../../../dma_exp_4.srcs/sources_1/bd/design_1/ipshared/979d/hdl/verilog"incdir="../../../../dma_exp_4.srcs/sources_1/bd/design_1/ipshared/b2d0/hdl/verilog"incdir="../../../../dma_exp_4.srcs/sources_1/bd/design_1/ipshared/8713/hdl"incdir="../../../../dma_exp_4.srcs/sources_1/bd/design_1/ipshared/85a3"incdir="../../../../dma_exp_4.srcs/sources_1/bd/design_1/ipshared/ec67/hdl"incdir="../../../../dma_exp_4.srcs/sources_1/bd/design_1/ipshared/00a3/hdl"incdir="../../../../dma_exp_4.srcs/sources_1/bd/design_1/ip/design_1_zynq_ultra_ps_e_0_1/sim_tlm"incdir="../../../../dma_exp_4.srcs/sources_1/bd/design_1/ip/design_1_zynq_ultra_ps_e_0_1"
bd_6f02_psr_aclk_0.vhd,vhdl,xil_defaultlib,../../../bd/design_1/ip/design_1_axi_smc_1/bd_0/ip/ip_1/sim/bd_6f02_psr_aclk_0.vhd,incdir="$ref_dir/../../../../dma_exp_4.srcs/sources_1/bd/design_1/ipshared/979d/hdl/verilog"incdir="$ref_dir/../../../../dma_exp_4.srcs/sources_1/bd/design_1/ipshared/b2d0/hdl/verilog"incdir="$ref_dir/../../../../dma_exp_4.srcs/sources_1/bd/design_1/ipshared/8713/hdl"incdir="$ref_dir/../../../../dma_exp_4.srcs/sources_1/bd/design_1/ipshared/85a3"incdir="$ref_dir/../../../../dma_exp_4.srcs/sources_1/bd/design_1/ipshared/ec67/hdl"incdir="$ref_dir/../../../../dma_exp_4.srcs/sources_1/bd/design_1/ipshared/00a3/hdl"incdir="../../../../dma_exp_4.srcs/sources_1/bd/design_1/ipshared/979d/hdl/verilog"incdir="../../../../dma_exp_4.srcs/sources_1/bd/design_1/ipshared/b2d0/hdl/verilog"incdir="../../../../dma_exp_4.srcs/sources_1/bd/design_1/ipshared/8713/hdl"incdir="../../../../dma_exp_4.srcs/sources_1/bd/design_1/ipshared/85a3"incdir="../../../../dma_exp_4.srcs/sources_1/bd/design_1/ipshared/ec67/hdl"incdir="../../../../dma_exp_4.srcs/sources_1/bd/design_1/ipshared/00a3/hdl"incdir="../../../../dma_exp_4.srcs/sources_1/bd/design_1/ip/design_1_zynq_ultra_ps_e_0_1/sim_tlm"incdir="../../../../dma_exp_4.srcs/sources_1/bd/design_1/ip/design_1_zynq_ultra_ps_e_0_1"
bd_6f02_arsw_0.sv,systemverilog,xil_defaultlib,../../../bd/design_1/ip/design_1_axi_smc_1/bd_0/ip/ip_2/sim/bd_6f02_arsw_0.sv,incdir="$ref_dir/../../../../dma_exp_4.srcs/sources_1/bd/design_1/ipshared/979d/hdl/verilog"incdir="$ref_dir/../../../../dma_exp_4.srcs/sources_1/bd/design_1/ipshared/b2d0/hdl/verilog"incdir="$ref_dir/../../../../dma_exp_4.srcs/sources_1/bd/design_1/ipshared/8713/hdl"incdir="$ref_dir/../../../../dma_exp_4.srcs/sources_1/bd/design_1/ipshared/85a3"incdir="$ref_dir/../../../../dma_exp_4.srcs/sources_1/bd/design_1/ipshared/ec67/hdl"incdir="$ref_dir/../../../../dma_exp_4.srcs/sources_1/bd/design_1/ipshared/00a3/hdl"incdir="../../../../dma_exp_4.srcs/sources_1/bd/design_1/ipshared/979d/hdl/verilog"incdir="../../../../dma_exp_4.srcs/sources_1/bd/design_1/ipshared/b2d0/hdl/verilog"incdir="../../../../dma_exp_4.srcs/sources_1/bd/design_1/ipshared/8713/hdl"incdir="../../../../dma_exp_4.srcs/sources_1/bd/design_1/ipshared/85a3"incdir="../../../../dma_exp_4.srcs/sources_1/bd/design_1/ipshared/ec67/hdl"incdir="../../../../dma_exp_4.srcs/sources_1/bd/design_1/ipshared/00a3/hdl"incdir="../../../../dma_exp_4.srcs/sources_1/bd/design_1/ip/design_1_zynq_ultra_ps_e_0_1/sim_tlm"incdir="../../../../dma_exp_4.srcs/sources_1/bd/design_1/ip/design_1_zynq_ultra_ps_e_0_1"
bd_6f02_rsw_0.sv,systemverilog,xil_defaultlib,../../../bd/design_1/ip/design_1_axi_smc_1/bd_0/ip/ip_3/sim/bd_6f02_rsw_0.sv,incdir="$ref_dir/../../../../dma_exp_4.srcs/sources_1/bd/design_1/ipshared/979d/hdl/verilog"incdir="$ref_dir/../../../../dma_exp_4.srcs/sources_1/bd/design_1/ipshared/b2d0/hdl/verilog"incdir="$ref_dir/../../../../dma_exp_4.srcs/sources_1/bd/design_1/ipshared/8713/hdl"incdir="$ref_dir/../../../../dma_exp_4.srcs/sources_1/bd/design_1/ipshared/85a3"incdir="$ref_dir/../../../../dma_exp_4.srcs/sources_1/bd/design_1/ipshared/ec67/hdl"incdir="$ref_dir/../../../../dma_exp_4.srcs/sources_1/bd/design_1/ipshared/00a3/hdl"incdir="../../../../dma_exp_4.srcs/sources_1/bd/design_1/ipshared/979d/hdl/verilog"incdir="../../../../dma_exp_4.srcs/sources_1/bd/design_1/ipshared/b2d0/hdl/verilog"incdir="../../../../dma_exp_4.srcs/sources_1/bd/design_1/ipshared/8713/hdl"incdir="../../../../dma_exp_4.srcs/sources_1/bd/design_1/ipshared/85a3"incdir="../../../../dma_exp_4.srcs/sources_1/bd/design_1/ipshared/ec67/hdl"incdir="../../../../dma_exp_4.srcs/sources_1/bd/design_1/ipshared/00a3/hdl"incdir="../../../../dma_exp_4.srcs/sources_1/bd/design_1/ip/design_1_zynq_ultra_ps_e_0_1/sim_tlm"incdir="../../../../dma_exp_4.srcs/sources_1/bd/design_1/ip/design_1_zynq_ultra_ps_e_0_1"
bd_6f02_awsw_0.sv,systemverilog,xil_defaultlib,../../../bd/design_1/ip/design_1_axi_smc_1/bd_0/ip/ip_4/sim/bd_6f02_awsw_0.sv,incdir="$ref_dir/../../../../dma_exp_4.srcs/sources_1/bd/design_1/ipshared/979d/hdl/verilog"incdir="$ref_dir/../../../../dma_exp_4.srcs/sources_1/bd/design_1/ipshared/b2d0/hdl/verilog"incdir="$ref_dir/../../../../dma_exp_4.srcs/sources_1/bd/design_1/ipshared/8713/hdl"incdir="$ref_dir/../../../../dma_exp_4.srcs/sources_1/bd/design_1/ipshared/85a3"incdir="$ref_dir/../../../../dma_exp_4.srcs/sources_1/bd/design_1/ipshared/ec67/hdl"incdir="$ref_dir/../../../../dma_exp_4.srcs/sources_1/bd/design_1/ipshared/00a3/hdl"incdir="../../../../dma_exp_4.srcs/sources_1/bd/design_1/ipshared/979d/hdl/verilog"incdir="../../../../dma_exp_4.srcs/sources_1/bd/design_1/ipshared/b2d0/hdl/verilog"incdir="../../../../dma_exp_4.srcs/sources_1/bd/design_1/ipshared/8713/hdl"incdir="../../../../dma_exp_4.srcs/sources_1/bd/design_1/ipshared/85a3"incdir="../../../../dma_exp_4.srcs/sources_1/bd/design_1/ipshared/ec67/hdl"incdir="../../../../dma_exp_4.srcs/sources_1/bd/design_1/ipshared/00a3/hdl"incdir="../../../../dma_exp_4.srcs/sources_1/bd/design_1/ip/design_1_zynq_ultra_ps_e_0_1/sim_tlm"incdir="../../../../dma_exp_4.srcs/sources_1/bd/design_1/ip/design_1_zynq_ultra_ps_e_0_1"
bd_6f02_wsw_0.sv,systemverilog,xil_defaultlib,../../../bd/design_1/ip/design_1_axi_smc_1/bd_0/ip/ip_5/sim/bd_6f02_wsw_0.sv,incdir="$ref_dir/../../../../dma_exp_4.srcs/sources_1/bd/design_1/ipshared/979d/hdl/verilog"incdir="$ref_dir/../../../../dma_exp_4.srcs/sources_1/bd/design_1/ipshared/b2d0/hdl/verilog"incdir="$ref_dir/../../../../dma_exp_4.srcs/sources_1/bd/design_1/ipshared/8713/hdl"incdir="$ref_dir/../../../../dma_exp_4.srcs/sources_1/bd/design_1/ipshared/85a3"incdir="$ref_dir/../../../../dma_exp_4.srcs/sources_1/bd/design_1/ipshared/ec67/hdl"incdir="$ref_dir/../../../../dma_exp_4.srcs/sources_1/bd/design_1/ipshared/00a3/hdl"incdir="../../../../dma_exp_4.srcs/sources_1/bd/design_1/ipshared/979d/hdl/verilog"incdir="../../../../dma_exp_4.srcs/sources_1/bd/design_1/ipshared/b2d0/hdl/verilog"incdir="../../../../dma_exp_4.srcs/sources_1/bd/design_1/ipshared/8713/hdl"incdir="../../../../dma_exp_4.srcs/sources_1/bd/design_1/ipshared/85a3"incdir="../../../../dma_exp_4.srcs/sources_1/bd/design_1/ipshared/ec67/hdl"incdir="../../../../dma_exp_4.srcs/sources_1/bd/design_1/ipshared/00a3/hdl"incdir="../../../../dma_exp_4.srcs/sources_1/bd/design_1/ip/design_1_zynq_ultra_ps_e_0_1/sim_tlm"incdir="../../../../dma_exp_4.srcs/sources_1/bd/design_1/ip/design_1_zynq_ultra_ps_e_0_1"
bd_6f02_bsw_0.sv,systemverilog,xil_defaultlib,../../../bd/design_1/ip/design_1_axi_smc_1/bd_0/ip/ip_6/sim/bd_6f02_bsw_0.sv,incdir="$ref_dir/../../../../dma_exp_4.srcs/sources_1/bd/design_1/ipshared/979d/hdl/verilog"incdir="$ref_dir/../../../../dma_exp_4.srcs/sources_1/bd/design_1/ipshared/b2d0/hdl/verilog"incdir="$ref_dir/../../../../dma_exp_4.srcs/sources_1/bd/design_1/ipshared/8713/hdl"incdir="$ref_dir/../../../../dma_exp_4.srcs/sources_1/bd/design_1/ipshared/85a3"incdir="$ref_dir/../../../../dma_exp_4.srcs/sources_1/bd/design_1/ipshared/ec67/hdl"incdir="$ref_dir/../../../../dma_exp_4.srcs/sources_1/bd/design_1/ipshared/00a3/hdl"incdir="../../../../dma_exp_4.srcs/sources_1/bd/design_1/ipshared/979d/hdl/verilog"incdir="../../../../dma_exp_4.srcs/sources_1/bd/design_1/ipshared/b2d0/hdl/verilog"incdir="../../../../dma_exp_4.srcs/sources_1/bd/design_1/ipshared/8713/hdl"incdir="../../../../dma_exp_4.srcs/sources_1/bd/design_1/ipshared/85a3"incdir="../../../../dma_exp_4.srcs/sources_1/bd/design_1/ipshared/ec67/hdl"incdir="../../../../dma_exp_4.srcs/sources_1/bd/design_1/ipshared/00a3/hdl"incdir="../../../../dma_exp_4.srcs/sources_1/bd/design_1/ip/design_1_zynq_ultra_ps_e_0_1/sim_tlm"incdir="../../../../dma_exp_4.srcs/sources_1/bd/design_1/ip/design_1_zynq_ultra_ps_e_0_1"
bd_6f02_s00mmu_0.sv,systemverilog,xil_defaultlib,../../../bd/design_1/ip/design_1_axi_smc_1/bd_0/ip/ip_7/sim/bd_6f02_s00mmu_0.sv,incdir="$ref_dir/../../../../dma_exp_4.srcs/sources_1/bd/design_1/ipshared/979d/hdl/verilog"incdir="$ref_dir/../../../../dma_exp_4.srcs/sources_1/bd/design_1/ipshared/b2d0/hdl/verilog"incdir="$ref_dir/../../../../dma_exp_4.srcs/sources_1/bd/design_1/ipshared/8713/hdl"incdir="$ref_dir/../../../../dma_exp_4.srcs/sources_1/bd/design_1/ipshared/85a3"incdir="$ref_dir/../../../../dma_exp_4.srcs/sources_1/bd/design_1/ipshared/ec67/hdl"incdir="$ref_dir/../../../../dma_exp_4.srcs/sources_1/bd/design_1/ipshared/00a3/hdl"incdir="../../../../dma_exp_4.srcs/sources_1/bd/design_1/ipshared/979d/hdl/verilog"incdir="../../../../dma_exp_4.srcs/sources_1/bd/design_1/ipshared/b2d0/hdl/verilog"incdir="../../../../dma_exp_4.srcs/sources_1/bd/design_1/ipshared/8713/hdl"incdir="../../../../dma_exp_4.srcs/sources_1/bd/design_1/ipshared/85a3"incdir="../../../../dma_exp_4.srcs/sources_1/bd/design_1/ipshared/ec67/hdl"incdir="../../../../dma_exp_4.srcs/sources_1/bd/design_1/ipshared/00a3/hdl"incdir="../../../../dma_exp_4.srcs/sources_1/bd/design_1/ip/design_1_zynq_ultra_ps_e_0_1/sim_tlm"incdir="../../../../dma_exp_4.srcs/sources_1/bd/design_1/ip/design_1_zynq_ultra_ps_e_0_1"
bd_6f02_s00tr_0.sv,systemverilog,xil_defaultlib,../../../bd/design_1/ip/design_1_axi_smc_1/bd_0/ip/ip_8/sim/bd_6f02_s00tr_0.sv,incdir="$ref_dir/../../../../dma_exp_4.srcs/sources_1/bd/design_1/ipshared/979d/hdl/verilog"incdir="$ref_dir/../../../../dma_exp_4.srcs/sources_1/bd/design_1/ipshared/b2d0/hdl/verilog"incdir="$ref_dir/../../../../dma_exp_4.srcs/sources_1/bd/design_1/ipshared/8713/hdl"incdir="$ref_dir/../../../../dma_exp_4.srcs/sources_1/bd/design_1/ipshared/85a3"incdir="$ref_dir/../../../../dma_exp_4.srcs/sources_1/bd/design_1/ipshared/ec67/hdl"incdir="$ref_dir/../../../../dma_exp_4.srcs/sources_1/bd/design_1/ipshared/00a3/hdl"incdir="../../../../dma_exp_4.srcs/sources_1/bd/design_1/ipshared/979d/hdl/verilog"incdir="../../../../dma_exp_4.srcs/sources_1/bd/design_1/ipshared/b2d0/hdl/verilog"incdir="../../../../dma_exp_4.srcs/sources_1/bd/design_1/ipshared/8713/hdl"incdir="../../../../dma_exp_4.srcs/sources_1/bd/design_1/ipshared/85a3"incdir="../../../../dma_exp_4.srcs/sources_1/bd/design_1/ipshared/ec67/hdl"incdir="../../../../dma_exp_4.srcs/sources_1/bd/design_1/ipshared/00a3/hdl"incdir="../../../../dma_exp_4.srcs/sources_1/bd/design_1/ip/design_1_zynq_ultra_ps_e_0_1/sim_tlm"incdir="../../../../dma_exp_4.srcs/sources_1/bd/design_1/ip/design_1_zynq_ultra_ps_e_0_1"
bd_6f02_s00sic_0.sv,systemverilog,xil_defaultlib,../../../bd/design_1/ip/design_1_axi_smc_1/bd_0/ip/ip_9/sim/bd_6f02_s00sic_0.sv,incdir="$ref_dir/../../../../dma_exp_4.srcs/sources_1/bd/design_1/ipshared/979d/hdl/verilog"incdir="$ref_dir/../../../../dma_exp_4.srcs/sources_1/bd/design_1/ipshared/b2d0/hdl/verilog"incdir="$ref_dir/../../../../dma_exp_4.srcs/sources_1/bd/design_1/ipshared/8713/hdl"incdir="$ref_dir/../../../../dma_exp_4.srcs/sources_1/bd/design_1/ipshared/85a3"incdir="$ref_dir/../../../../dma_exp_4.srcs/sources_1/bd/design_1/ipshared/ec67/hdl"incdir="$ref_dir/../../../../dma_exp_4.srcs/sources_1/bd/design_1/ipshared/00a3/hdl"incdir="../../../../dma_exp_4.srcs/sources_1/bd/design_1/ipshared/979d/hdl/verilog"incdir="../../../../dma_exp_4.srcs/sources_1/bd/design_1/ipshared/b2d0/hdl/verilog"incdir="../../../../dma_exp_4.srcs/sources_1/bd/design_1/ipshared/8713/hdl"incdir="../../../../dma_exp_4.srcs/sources_1/bd/design_1/ipshared/85a3"incdir="../../../../dma_exp_4.srcs/sources_1/bd/design_1/ipshared/ec67/hdl"incdir="../../../../dma_exp_4.srcs/sources_1/bd/design_1/ipshared/00a3/hdl"incdir="../../../../dma_exp_4.srcs/sources_1/bd/design_1/ip/design_1_zynq_ultra_ps_e_0_1/sim_tlm"incdir="../../../../dma_exp_4.srcs/sources_1/bd/design_1/ip/design_1_zynq_ultra_ps_e_0_1"
bd_6f02_s00a2s_0.sv,systemverilog,xil_defaultlib,../../../bd/design_1/ip/design_1_axi_smc_1/bd_0/ip/ip_10/sim/bd_6f02_s00a2s_0.sv,incdir="$ref_dir/../../../../dma_exp_4.srcs/sources_1/bd/design_1/ipshared/979d/hdl/verilog"incdir="$ref_dir/../../../../dma_exp_4.srcs/sources_1/bd/design_1/ipshared/b2d0/hdl/verilog"incdir="$ref_dir/../../../../dma_exp_4.srcs/sources_1/bd/design_1/ipshared/8713/hdl"incdir="$ref_dir/../../../../dma_exp_4.srcs/sources_1/bd/design_1/ipshared/85a3"incdir="$ref_dir/../../../../dma_exp_4.srcs/sources_1/bd/design_1/ipshared/ec67/hdl"incdir="$ref_dir/../../../../dma_exp_4.srcs/sources_1/bd/design_1/ipshared/00a3/hdl"incdir="../../../../dma_exp_4.srcs/sources_1/bd/design_1/ipshared/979d/hdl/verilog"incdir="../../../../dma_exp_4.srcs/sources_1/bd/design_1/ipshared/b2d0/hdl/verilog"incdir="../../../../dma_exp_4.srcs/sources_1/bd/design_1/ipshared/8713/hdl"incdir="../../../../dma_exp_4.srcs/sources_1/bd/design_1/ipshared/85a3"incdir="../../../../dma_exp_4.srcs/sources_1/bd/design_1/ipshared/ec67/hdl"incdir="../../../../dma_exp_4.srcs/sources_1/bd/design_1/ipshared/00a3/hdl"incdir="../../../../dma_exp_4.srcs/sources_1/bd/design_1/ip/design_1_zynq_ultra_ps_e_0_1/sim_tlm"incdir="../../../../dma_exp_4.srcs/sources_1/bd/design_1/ip/design_1_zynq_ultra_ps_e_0_1"
bd_6f02_sarn_0.sv,systemverilog,xil_defaultlib,../../../bd/design_1/ip/design_1_axi_smc_1/bd_0/ip/ip_11/sim/bd_6f02_sarn_0.sv,incdir="$ref_dir/../../../../dma_exp_4.srcs/sources_1/bd/design_1/ipshared/979d/hdl/verilog"incdir="$ref_dir/../../../../dma_exp_4.srcs/sources_1/bd/design_1/ipshared/b2d0/hdl/verilog"incdir="$ref_dir/../../../../dma_exp_4.srcs/sources_1/bd/design_1/ipshared/8713/hdl"incdir="$ref_dir/../../../../dma_exp_4.srcs/sources_1/bd/design_1/ipshared/85a3"incdir="$ref_dir/../../../../dma_exp_4.srcs/sources_1/bd/design_1/ipshared/ec67/hdl"incdir="$ref_dir/../../../../dma_exp_4.srcs/sources_1/bd/design_1/ipshared/00a3/hdl"incdir="../../../../dma_exp_4.srcs/sources_1/bd/design_1/ipshared/979d/hdl/verilog"incdir="../../../../dma_exp_4.srcs/sources_1/bd/design_1/ipshared/b2d0/hdl/verilog"incdir="../../../../dma_exp_4.srcs/sources_1/bd/design_1/ipshared/8713/hdl"incdir="../../../../dma_exp_4.srcs/sources_1/bd/design_1/ipshared/85a3"incdir="../../../../dma_exp_4.srcs/sources_1/bd/design_1/ipshared/ec67/hdl"incdir="../../../../dma_exp_4.srcs/sources_1/bd/design_1/ipshared/00a3/hdl"incdir="../../../../dma_exp_4.srcs/sources_1/bd/design_1/ip/design_1_zynq_ultra_ps_e_0_1/sim_tlm"incdir="../../../../dma_exp_4.srcs/sources_1/bd/design_1/ip/design_1_zynq_ultra_ps_e_0_1"
bd_6f02_srn_0.sv,systemverilog,xil_defaultlib,../../../bd/design_1/ip/design_1_axi_smc_1/bd_0/ip/ip_12/sim/bd_6f02_srn_0.sv,incdir="$ref_dir/../../../../dma_exp_4.srcs/sources_1/bd/design_1/ipshared/979d/hdl/verilog"incdir="$ref_dir/../../../../dma_exp_4.srcs/sources_1/bd/design_1/ipshared/b2d0/hdl/verilog"incdir="$ref_dir/../../../../dma_exp_4.srcs/sources_1/bd/design_1/ipshared/8713/hdl"incdir="$ref_dir/../../../../dma_exp_4.srcs/sources_1/bd/design_1/ipshared/85a3"incdir="$ref_dir/../../../../dma_exp_4.srcs/sources_1/bd/design_1/ipshared/ec67/hdl"incdir="$ref_dir/../../../../dma_exp_4.srcs/sources_1/bd/design_1/ipshared/00a3/hdl"incdir="../../../../dma_exp_4.srcs/sources_1/bd/design_1/ipshared/979d/hdl/verilog"incdir="../../../../dma_exp_4.srcs/sources_1/bd/design_1/ipshared/b2d0/hdl/verilog"incdir="../../../../dma_exp_4.srcs/sources_1/bd/design_1/ipshared/8713/hdl"incdir="../../../../dma_exp_4.srcs/sources_1/bd/design_1/ipshared/85a3"incdir="../../../../dma_exp_4.srcs/sources_1/bd/design_1/ipshared/ec67/hdl"incdir="../../../../dma_exp_4.srcs/sources_1/bd/design_1/ipshared/00a3/hdl"incdir="../../../../dma_exp_4.srcs/sources_1/bd/design_1/ip/design_1_zynq_ultra_ps_e_0_1/sim_tlm"incdir="../../../../dma_exp_4.srcs/sources_1/bd/design_1/ip/design_1_zynq_ultra_ps_e_0_1"
bd_6f02_s01mmu_0.sv,systemverilog,xil_defaultlib,../../../bd/design_1/ip/design_1_axi_smc_1/bd_0/ip/ip_13/sim/bd_6f02_s01mmu_0.sv,incdir="$ref_dir/../../../../dma_exp_4.srcs/sources_1/bd/design_1/ipshared/979d/hdl/verilog"incdir="$ref_dir/../../../../dma_exp_4.srcs/sources_1/bd/design_1/ipshared/b2d0/hdl/verilog"incdir="$ref_dir/../../../../dma_exp_4.srcs/sources_1/bd/design_1/ipshared/8713/hdl"incdir="$ref_dir/../../../../dma_exp_4.srcs/sources_1/bd/design_1/ipshared/85a3"incdir="$ref_dir/../../../../dma_exp_4.srcs/sources_1/bd/design_1/ipshared/ec67/hdl"incdir="$ref_dir/../../../../dma_exp_4.srcs/sources_1/bd/design_1/ipshared/00a3/hdl"incdir="../../../../dma_exp_4.srcs/sources_1/bd/design_1/ipshared/979d/hdl/verilog"incdir="../../../../dma_exp_4.srcs/sources_1/bd/design_1/ipshared/b2d0/hdl/verilog"incdir="../../../../dma_exp_4.srcs/sources_1/bd/design_1/ipshared/8713/hdl"incdir="../../../../dma_exp_4.srcs/sources_1/bd/design_1/ipshared/85a3"incdir="../../../../dma_exp_4.srcs/sources_1/bd/design_1/ipshared/ec67/hdl"incdir="../../../../dma_exp_4.srcs/sources_1/bd/design_1/ipshared/00a3/hdl"incdir="../../../../dma_exp_4.srcs/sources_1/bd/design_1/ip/design_1_zynq_ultra_ps_e_0_1/sim_tlm"incdir="../../../../dma_exp_4.srcs/sources_1/bd/design_1/ip/design_1_zynq_ultra_ps_e_0_1"
bd_6f02_s01tr_0.sv,systemverilog,xil_defaultlib,../../../bd/design_1/ip/design_1_axi_smc_1/bd_0/ip/ip_14/sim/bd_6f02_s01tr_0.sv,incdir="$ref_dir/../../../../dma_exp_4.srcs/sources_1/bd/design_1/ipshared/979d/hdl/verilog"incdir="$ref_dir/../../../../dma_exp_4.srcs/sources_1/bd/design_1/ipshared/b2d0/hdl/verilog"incdir="$ref_dir/../../../../dma_exp_4.srcs/sources_1/bd/design_1/ipshared/8713/hdl"incdir="$ref_dir/../../../../dma_exp_4.srcs/sources_1/bd/design_1/ipshared/85a3"incdir="$ref_dir/../../../../dma_exp_4.srcs/sources_1/bd/design_1/ipshared/ec67/hdl"incdir="$ref_dir/../../../../dma_exp_4.srcs/sources_1/bd/design_1/ipshared/00a3/hdl"incdir="../../../../dma_exp_4.srcs/sources_1/bd/design_1/ipshared/979d/hdl/verilog"incdir="../../../../dma_exp_4.srcs/sources_1/bd/design_1/ipshared/b2d0/hdl/verilog"incdir="../../../../dma_exp_4.srcs/sources_1/bd/design_1/ipshared/8713/hdl"incdir="../../../../dma_exp_4.srcs/sources_1/bd/design_1/ipshared/85a3"incdir="../../../../dma_exp_4.srcs/sources_1/bd/design_1/ipshared/ec67/hdl"incdir="../../../../dma_exp_4.srcs/sources_1/bd/design_1/ipshared/00a3/hdl"incdir="../../../../dma_exp_4.srcs/sources_1/bd/design_1/ip/design_1_zynq_ultra_ps_e_0_1/sim_tlm"incdir="../../../../dma_exp_4.srcs/sources_1/bd/design_1/ip/design_1_zynq_ultra_ps_e_0_1"
bd_6f02_s01sic_0.sv,systemverilog,xil_defaultlib,../../../bd/design_1/ip/design_1_axi_smc_1/bd_0/ip/ip_15/sim/bd_6f02_s01sic_0.sv,incdir="$ref_dir/../../../../dma_exp_4.srcs/sources_1/bd/design_1/ipshared/979d/hdl/verilog"incdir="$ref_dir/../../../../dma_exp_4.srcs/sources_1/bd/design_1/ipshared/b2d0/hdl/verilog"incdir="$ref_dir/../../../../dma_exp_4.srcs/sources_1/bd/design_1/ipshared/8713/hdl"incdir="$ref_dir/../../../../dma_exp_4.srcs/sources_1/bd/design_1/ipshared/85a3"incdir="$ref_dir/../../../../dma_exp_4.srcs/sources_1/bd/design_1/ipshared/ec67/hdl"incdir="$ref_dir/../../../../dma_exp_4.srcs/sources_1/bd/design_1/ipshared/00a3/hdl"incdir="../../../../dma_exp_4.srcs/sources_1/bd/design_1/ipshared/979d/hdl/verilog"incdir="../../../../dma_exp_4.srcs/sources_1/bd/design_1/ipshared/b2d0/hdl/verilog"incdir="../../../../dma_exp_4.srcs/sources_1/bd/design_1/ipshared/8713/hdl"incdir="../../../../dma_exp_4.srcs/sources_1/bd/design_1/ipshared/85a3"incdir="../../../../dma_exp_4.srcs/sources_1/bd/design_1/ipshared/ec67/hdl"incdir="../../../../dma_exp_4.srcs/sources_1/bd/design_1/ipshared/00a3/hdl"incdir="../../../../dma_exp_4.srcs/sources_1/bd/design_1/ip/design_1_zynq_ultra_ps_e_0_1/sim_tlm"incdir="../../../../dma_exp_4.srcs/sources_1/bd/design_1/ip/design_1_zynq_ultra_ps_e_0_1"
bd_6f02_s01a2s_0.sv,systemverilog,xil_defaultlib,../../../bd/design_1/ip/design_1_axi_smc_1/bd_0/ip/ip_16/sim/bd_6f02_s01a2s_0.sv,incdir="$ref_dir/../../../../dma_exp_4.srcs/sources_1/bd/design_1/ipshared/979d/hdl/verilog"incdir="$ref_dir/../../../../dma_exp_4.srcs/sources_1/bd/design_1/ipshared/b2d0/hdl/verilog"incdir="$ref_dir/../../../../dma_exp_4.srcs/sources_1/bd/design_1/ipshared/8713/hdl"incdir="$ref_dir/../../../../dma_exp_4.srcs/sources_1/bd/design_1/ipshared/85a3"incdir="$ref_dir/../../../../dma_exp_4.srcs/sources_1/bd/design_1/ipshared/ec67/hdl"incdir="$ref_dir/../../../../dma_exp_4.srcs/sources_1/bd/design_1/ipshared/00a3/hdl"incdir="../../../../dma_exp_4.srcs/sources_1/bd/design_1/ipshared/979d/hdl/verilog"incdir="../../../../dma_exp_4.srcs/sources_1/bd/design_1/ipshared/b2d0/hdl/verilog"incdir="../../../../dma_exp_4.srcs/sources_1/bd/design_1/ipshared/8713/hdl"incdir="../../../../dma_exp_4.srcs/sources_1/bd/design_1/ipshared/85a3"incdir="../../../../dma_exp_4.srcs/sources_1/bd/design_1/ipshared/ec67/hdl"incdir="../../../../dma_exp_4.srcs/sources_1/bd/design_1/ipshared/00a3/hdl"incdir="../../../../dma_exp_4.srcs/sources_1/bd/design_1/ip/design_1_zynq_ultra_ps_e_0_1/sim_tlm"incdir="../../../../dma_exp_4.srcs/sources_1/bd/design_1/ip/design_1_zynq_ultra_ps_e_0_1"
bd_6f02_sawn_0.sv,systemverilog,xil_defaultlib,../../../bd/design_1/ip/design_1_axi_smc_1/bd_0/ip/ip_17/sim/bd_6f02_sawn_0.sv,incdir="$ref_dir/../../../../dma_exp_4.srcs/sources_1/bd/design_1/ipshared/979d/hdl/verilog"incdir="$ref_dir/../../../../dma_exp_4.srcs/sources_1/bd/design_1/ipshared/b2d0/hdl/verilog"incdir="$ref_dir/../../../../dma_exp_4.srcs/sources_1/bd/design_1/ipshared/8713/hdl"incdir="$ref_dir/../../../../dma_exp_4.srcs/sources_1/bd/design_1/ipshared/85a3"incdir="$ref_dir/../../../../dma_exp_4.srcs/sources_1/bd/design_1/ipshared/ec67/hdl"incdir="$ref_dir/../../../../dma_exp_4.srcs/sources_1/bd/design_1/ipshared/00a3/hdl"incdir="../../../../dma_exp_4.srcs/sources_1/bd/design_1/ipshared/979d/hdl/verilog"incdir="../../../../dma_exp_4.srcs/sources_1/bd/design_1/ipshared/b2d0/hdl/verilog"incdir="../../../../dma_exp_4.srcs/sources_1/bd/design_1/ipshared/8713/hdl"incdir="../../../../dma_exp_4.srcs/sources_1/bd/design_1/ipshared/85a3"incdir="../../../../dma_exp_4.srcs/sources_1/bd/design_1/ipshared/ec67/hdl"incdir="../../../../dma_exp_4.srcs/sources_1/bd/design_1/ipshared/00a3/hdl"incdir="../../../../dma_exp_4.srcs/sources_1/bd/design_1/ip/design_1_zynq_ultra_ps_e_0_1/sim_tlm"incdir="../../../../dma_exp_4.srcs/sources_1/bd/design_1/ip/design_1_zynq_ultra_ps_e_0_1"
bd_6f02_swn_0.sv,systemverilog,xil_defaultlib,../../../bd/design_1/ip/design_1_axi_smc_1/bd_0/ip/ip_18/sim/bd_6f02_swn_0.sv,incdir="$ref_dir/../../../../dma_exp_4.srcs/sources_1/bd/design_1/ipshared/979d/hdl/verilog"incdir="$ref_dir/../../../../dma_exp_4.srcs/sources_1/bd/design_1/ipshared/b2d0/hdl/verilog"incdir="$ref_dir/../../../../dma_exp_4.srcs/sources_1/bd/design_1/ipshared/8713/hdl"incdir="$ref_dir/../../../../dma_exp_4.srcs/sources_1/bd/design_1/ipshared/85a3"incdir="$ref_dir/../../../../dma_exp_4.srcs/sources_1/bd/design_1/ipshared/ec67/hdl"incdir="$ref_dir/../../../../dma_exp_4.srcs/sources_1/bd/design_1/ipshared/00a3/hdl"incdir="../../../../dma_exp_4.srcs/sources_1/bd/design_1/ipshared/979d/hdl/verilog"incdir="../../../../dma_exp_4.srcs/sources_1/bd/design_1/ipshared/b2d0/hdl/verilog"incdir="../../../../dma_exp_4.srcs/sources_1/bd/design_1/ipshared/8713/hdl"incdir="../../../../dma_exp_4.srcs/sources_1/bd/design_1/ipshared/85a3"incdir="../../../../dma_exp_4.srcs/sources_1/bd/design_1/ipshared/ec67/hdl"incdir="../../../../dma_exp_4.srcs/sources_1/bd/design_1/ipshared/00a3/hdl"incdir="../../../../dma_exp_4.srcs/sources_1/bd/design_1/ip/design_1_zynq_ultra_ps_e_0_1/sim_tlm"incdir="../../../../dma_exp_4.srcs/sources_1/bd/design_1/ip/design_1_zynq_ultra_ps_e_0_1"
bd_6f02_sbn_0.sv,systemverilog,xil_defaultlib,../../../bd/design_1/ip/design_1_axi_smc_1/bd_0/ip/ip_19/sim/bd_6f02_sbn_0.sv,incdir="$ref_dir/../../../../dma_exp_4.srcs/sources_1/bd/design_1/ipshared/979d/hdl/verilog"incdir="$ref_dir/../../../../dma_exp_4.srcs/sources_1/bd/design_1/ipshared/b2d0/hdl/verilog"incdir="$ref_dir/../../../../dma_exp_4.srcs/sources_1/bd/design_1/ipshared/8713/hdl"incdir="$ref_dir/../../../../dma_exp_4.srcs/sources_1/bd/design_1/ipshared/85a3"incdir="$ref_dir/../../../../dma_exp_4.srcs/sources_1/bd/design_1/ipshared/ec67/hdl"incdir="$ref_dir/../../../../dma_exp_4.srcs/sources_1/bd/design_1/ipshared/00a3/hdl"incdir="../../../../dma_exp_4.srcs/sources_1/bd/design_1/ipshared/979d/hdl/verilog"incdir="../../../../dma_exp_4.srcs/sources_1/bd/design_1/ipshared/b2d0/hdl/verilog"incdir="../../../../dma_exp_4.srcs/sources_1/bd/design_1/ipshared/8713/hdl"incdir="../../../../dma_exp_4.srcs/sources_1/bd/design_1/ipshared/85a3"incdir="../../../../dma_exp_4.srcs/sources_1/bd/design_1/ipshared/ec67/hdl"incdir="../../../../dma_exp_4.srcs/sources_1/bd/design_1/ipshared/00a3/hdl"incdir="../../../../dma_exp_4.srcs/sources_1/bd/design_1/ip/design_1_zynq_ultra_ps_e_0_1/sim_tlm"incdir="../../../../dma_exp_4.srcs/sources_1/bd/design_1/ip/design_1_zynq_ultra_ps_e_0_1"
bd_6f02_m00s2a_0.sv,systemverilog,xil_defaultlib,../../../bd/design_1/ip/design_1_axi_smc_1/bd_0/ip/ip_20/sim/bd_6f02_m00s2a_0.sv,incdir="$ref_dir/../../../../dma_exp_4.srcs/sources_1/bd/design_1/ipshared/979d/hdl/verilog"incdir="$ref_dir/../../../../dma_exp_4.srcs/sources_1/bd/design_1/ipshared/b2d0/hdl/verilog"incdir="$ref_dir/../../../../dma_exp_4.srcs/sources_1/bd/design_1/ipshared/8713/hdl"incdir="$ref_dir/../../../../dma_exp_4.srcs/sources_1/bd/design_1/ipshared/85a3"incdir="$ref_dir/../../../../dma_exp_4.srcs/sources_1/bd/design_1/ipshared/ec67/hdl"incdir="$ref_dir/../../../../dma_exp_4.srcs/sources_1/bd/design_1/ipshared/00a3/hdl"incdir="../../../../dma_exp_4.srcs/sources_1/bd/design_1/ipshared/979d/hdl/verilog"incdir="../../../../dma_exp_4.srcs/sources_1/bd/design_1/ipshared/b2d0/hdl/verilog"incdir="../../../../dma_exp_4.srcs/sources_1/bd/design_1/ipshared/8713/hdl"incdir="../../../../dma_exp_4.srcs/sources_1/bd/design_1/ipshared/85a3"incdir="../../../../dma_exp_4.srcs/sources_1/bd/design_1/ipshared/ec67/hdl"incdir="../../../../dma_exp_4.srcs/sources_1/bd/design_1/ipshared/00a3/hdl"incdir="../../../../dma_exp_4.srcs/sources_1/bd/design_1/ip/design_1_zynq_ultra_ps_e_0_1/sim_tlm"incdir="../../../../dma_exp_4.srcs/sources_1/bd/design_1/ip/design_1_zynq_ultra_ps_e_0_1"
bd_6f02_m00arn_0.sv,systemverilog,xil_defaultlib,../../../bd/design_1/ip/design_1_axi_smc_1/bd_0/ip/ip_21/sim/bd_6f02_m00arn_0.sv,incdir="$ref_dir/../../../../dma_exp_4.srcs/sources_1/bd/design_1/ipshared/979d/hdl/verilog"incdir="$ref_dir/../../../../dma_exp_4.srcs/sources_1/bd/design_1/ipshared/b2d0/hdl/verilog"incdir="$ref_dir/../../../../dma_exp_4.srcs/sources_1/bd/design_1/ipshared/8713/hdl"incdir="$ref_dir/../../../../dma_exp_4.srcs/sources_1/bd/design_1/ipshared/85a3"incdir="$ref_dir/../../../../dma_exp_4.srcs/sources_1/bd/design_1/ipshared/ec67/hdl"incdir="$ref_dir/../../../../dma_exp_4.srcs/sources_1/bd/design_1/ipshared/00a3/hdl"incdir="../../../../dma_exp_4.srcs/sources_1/bd/design_1/ipshared/979d/hdl/verilog"incdir="../../../../dma_exp_4.srcs/sources_1/bd/design_1/ipshared/b2d0/hdl/verilog"incdir="../../../../dma_exp_4.srcs/sources_1/bd/design_1/ipshared/8713/hdl"incdir="../../../../dma_exp_4.srcs/sources_1/bd/design_1/ipshared/85a3"incdir="../../../../dma_exp_4.srcs/sources_1/bd/design_1/ipshared/ec67/hdl"incdir="../../../../dma_exp_4.srcs/sources_1/bd/design_1/ipshared/00a3/hdl"incdir="../../../../dma_exp_4.srcs/sources_1/bd/design_1/ip/design_1_zynq_ultra_ps_e_0_1/sim_tlm"incdir="../../../../dma_exp_4.srcs/sources_1/bd/design_1/ip/design_1_zynq_ultra_ps_e_0_1"
bd_6f02_m00rn_0.sv,systemverilog,xil_defaultlib,../../../bd/design_1/ip/design_1_axi_smc_1/bd_0/ip/ip_22/sim/bd_6f02_m00rn_0.sv,incdir="$ref_dir/../../../../dma_exp_4.srcs/sources_1/bd/design_1/ipshared/979d/hdl/verilog"incdir="$ref_dir/../../../../dma_exp_4.srcs/sources_1/bd/design_1/ipshared/b2d0/hdl/verilog"incdir="$ref_dir/../../../../dma_exp_4.srcs/sources_1/bd/design_1/ipshared/8713/hdl"incdir="$ref_dir/../../../../dma_exp_4.srcs/sources_1/bd/design_1/ipshared/85a3"incdir="$ref_dir/../../../../dma_exp_4.srcs/sources_1/bd/design_1/ipshared/ec67/hdl"incdir="$ref_dir/../../../../dma_exp_4.srcs/sources_1/bd/design_1/ipshared/00a3/hdl"incdir="../../../../dma_exp_4.srcs/sources_1/bd/design_1/ipshared/979d/hdl/verilog"incdir="../../../../dma_exp_4.srcs/sources_1/bd/design_1/ipshared/b2d0/hdl/verilog"incdir="../../../../dma_exp_4.srcs/sources_1/bd/design_1/ipshared/8713/hdl"incdir="../../../../dma_exp_4.srcs/sources_1/bd/design_1/ipshared/85a3"incdir="../../../../dma_exp_4.srcs/sources_1/bd/design_1/ipshared/ec67/hdl"incdir="../../../../dma_exp_4.srcs/sources_1/bd/design_1/ipshared/00a3/hdl"incdir="../../../../dma_exp_4.srcs/sources_1/bd/design_1/ip/design_1_zynq_ultra_ps_e_0_1/sim_tlm"incdir="../../../../dma_exp_4.srcs/sources_1/bd/design_1/ip/design_1_zynq_ultra_ps_e_0_1"
bd_6f02_m00awn_0.sv,systemverilog,xil_defaultlib,../../../bd/design_1/ip/design_1_axi_smc_1/bd_0/ip/ip_23/sim/bd_6f02_m00awn_0.sv,incdir="$ref_dir/../../../../dma_exp_4.srcs/sources_1/bd/design_1/ipshared/979d/hdl/verilog"incdir="$ref_dir/../../../../dma_exp_4.srcs/sources_1/bd/design_1/ipshared/b2d0/hdl/verilog"incdir="$ref_dir/../../../../dma_exp_4.srcs/sources_1/bd/design_1/ipshared/8713/hdl"incdir="$ref_dir/../../../../dma_exp_4.srcs/sources_1/bd/design_1/ipshared/85a3"incdir="$ref_dir/../../../../dma_exp_4.srcs/sources_1/bd/design_1/ipshared/ec67/hdl"incdir="$ref_dir/../../../../dma_exp_4.srcs/sources_1/bd/design_1/ipshared/00a3/hdl"incdir="../../../../dma_exp_4.srcs/sources_1/bd/design_1/ipshared/979d/hdl/verilog"incdir="../../../../dma_exp_4.srcs/sources_1/bd/design_1/ipshared/b2d0/hdl/verilog"incdir="../../../../dma_exp_4.srcs/sources_1/bd/design_1/ipshared/8713/hdl"incdir="../../../../dma_exp_4.srcs/sources_1/bd/design_1/ipshared/85a3"incdir="../../../../dma_exp_4.srcs/sources_1/bd/design_1/ipshared/ec67/hdl"incdir="../../../../dma_exp_4.srcs/sources_1/bd/design_1/ipshared/00a3/hdl"incdir="../../../../dma_exp_4.srcs/sources_1/bd/design_1/ip/design_1_zynq_ultra_ps_e_0_1/sim_tlm"incdir="../../../../dma_exp_4.srcs/sources_1/bd/design_1/ip/design_1_zynq_ultra_ps_e_0_1"
bd_6f02_m00wn_0.sv,systemverilog,xil_defaultlib,../../../bd/design_1/ip/design_1_axi_smc_1/bd_0/ip/ip_24/sim/bd_6f02_m00wn_0.sv,incdir="$ref_dir/../../../../dma_exp_4.srcs/sources_1/bd/design_1/ipshared/979d/hdl/verilog"incdir="$ref_dir/../../../../dma_exp_4.srcs/sources_1/bd/design_1/ipshared/b2d0/hdl/verilog"incdir="$ref_dir/../../../../dma_exp_4.srcs/sources_1/bd/design_1/ipshared/8713/hdl"incdir="$ref_dir/../../../../dma_exp_4.srcs/sources_1/bd/design_1/ipshared/85a3"incdir="$ref_dir/../../../../dma_exp_4.srcs/sources_1/bd/design_1/ipshared/ec67/hdl"incdir="$ref_dir/../../../../dma_exp_4.srcs/sources_1/bd/design_1/ipshared/00a3/hdl"incdir="../../../../dma_exp_4.srcs/sources_1/bd/design_1/ipshared/979d/hdl/verilog"incdir="../../../../dma_exp_4.srcs/sources_1/bd/design_1/ipshared/b2d0/hdl/verilog"incdir="../../../../dma_exp_4.srcs/sources_1/bd/design_1/ipshared/8713/hdl"incdir="../../../../dma_exp_4.srcs/sources_1/bd/design_1/ipshared/85a3"incdir="../../../../dma_exp_4.srcs/sources_1/bd/design_1/ipshared/ec67/hdl"incdir="../../../../dma_exp_4.srcs/sources_1/bd/design_1/ipshared/00a3/hdl"incdir="../../../../dma_exp_4.srcs/sources_1/bd/design_1/ip/design_1_zynq_ultra_ps_e_0_1/sim_tlm"incdir="../../../../dma_exp_4.srcs/sources_1/bd/design_1/ip/design_1_zynq_ultra_ps_e_0_1"
bd_6f02_m00bn_0.sv,systemverilog,xil_defaultlib,../../../bd/design_1/ip/design_1_axi_smc_1/bd_0/ip/ip_25/sim/bd_6f02_m00bn_0.sv,incdir="$ref_dir/../../../../dma_exp_4.srcs/sources_1/bd/design_1/ipshared/979d/hdl/verilog"incdir="$ref_dir/../../../../dma_exp_4.srcs/sources_1/bd/design_1/ipshared/b2d0/hdl/verilog"incdir="$ref_dir/../../../../dma_exp_4.srcs/sources_1/bd/design_1/ipshared/8713/hdl"incdir="$ref_dir/../../../../dma_exp_4.srcs/sources_1/bd/design_1/ipshared/85a3"incdir="$ref_dir/../../../../dma_exp_4.srcs/sources_1/bd/design_1/ipshared/ec67/hdl"incdir="$ref_dir/../../../../dma_exp_4.srcs/sources_1/bd/design_1/ipshared/00a3/hdl"incdir="../../../../dma_exp_4.srcs/sources_1/bd/design_1/ipshared/979d/hdl/verilog"incdir="../../../../dma_exp_4.srcs/sources_1/bd/design_1/ipshared/b2d0/hdl/verilog"incdir="../../../../dma_exp_4.srcs/sources_1/bd/design_1/ipshared/8713/hdl"incdir="../../../../dma_exp_4.srcs/sources_1/bd/design_1/ipshared/85a3"incdir="../../../../dma_exp_4.srcs/sources_1/bd/design_1/ipshared/ec67/hdl"incdir="../../../../dma_exp_4.srcs/sources_1/bd/design_1/ipshared/00a3/hdl"incdir="../../../../dma_exp_4.srcs/sources_1/bd/design_1/ip/design_1_zynq_ultra_ps_e_0_1/sim_tlm"incdir="../../../../dma_exp_4.srcs/sources_1/bd/design_1/ip/design_1_zynq_ultra_ps_e_0_1"
bd_6f02_m00e_0.sv,systemverilog,xil_defaultlib,../../../bd/design_1/ip/design_1_axi_smc_1/bd_0/ip/ip_26/sim/bd_6f02_m00e_0.sv,incdir="$ref_dir/../../../../dma_exp_4.srcs/sources_1/bd/design_1/ipshared/979d/hdl/verilog"incdir="$ref_dir/../../../../dma_exp_4.srcs/sources_1/bd/design_1/ipshared/b2d0/hdl/verilog"incdir="$ref_dir/../../../../dma_exp_4.srcs/sources_1/bd/design_1/ipshared/8713/hdl"incdir="$ref_dir/../../../../dma_exp_4.srcs/sources_1/bd/design_1/ipshared/85a3"incdir="$ref_dir/../../../../dma_exp_4.srcs/sources_1/bd/design_1/ipshared/ec67/hdl"incdir="$ref_dir/../../../../dma_exp_4.srcs/sources_1/bd/design_1/ipshared/00a3/hdl"incdir="../../../../dma_exp_4.srcs/sources_1/bd/design_1/ipshared/979d/hdl/verilog"incdir="../../../../dma_exp_4.srcs/sources_1/bd/design_1/ipshared/b2d0/hdl/verilog"incdir="../../../../dma_exp_4.srcs/sources_1/bd/design_1/ipshared/8713/hdl"incdir="../../../../dma_exp_4.srcs/sources_1/bd/design_1/ipshared/85a3"incdir="../../../../dma_exp_4.srcs/sources_1/bd/design_1/ipshared/ec67/hdl"incdir="../../../../dma_exp_4.srcs/sources_1/bd/design_1/ipshared/00a3/hdl"incdir="../../../../dma_exp_4.srcs/sources_1/bd/design_1/ip/design_1_zynq_ultra_ps_e_0_1/sim_tlm"incdir="../../../../dma_exp_4.srcs/sources_1/bd/design_1/ip/design_1_zynq_ultra_ps_e_0_1"
design_1_axi_smc_1.v,verilog,xil_defaultlib,../../../bd/design_1/ip/design_1_axi_smc_1/sim/design_1_axi_smc_1.v,incdir="$ref_dir/../../../../dma_exp_4.srcs/sources_1/bd/design_1/ipshared/979d/hdl/verilog"incdir="$ref_dir/../../../../dma_exp_4.srcs/sources_1/bd/design_1/ipshared/b2d0/hdl/verilog"incdir="$ref_dir/../../../../dma_exp_4.srcs/sources_1/bd/design_1/ipshared/8713/hdl"incdir="$ref_dir/../../../../dma_exp_4.srcs/sources_1/bd/design_1/ipshared/85a3"incdir="$ref_dir/../../../../dma_exp_4.srcs/sources_1/bd/design_1/ipshared/ec67/hdl"incdir="$ref_dir/../../../../dma_exp_4.srcs/sources_1/bd/design_1/ipshared/00a3/hdl"incdir="../../../../dma_exp_4.srcs/sources_1/bd/design_1/ipshared/979d/hdl/verilog"incdir="../../../../dma_exp_4.srcs/sources_1/bd/design_1/ipshared/b2d0/hdl/verilog"incdir="../../../../dma_exp_4.srcs/sources_1/bd/design_1/ipshared/8713/hdl"incdir="../../../../dma_exp_4.srcs/sources_1/bd/design_1/ipshared/85a3"incdir="../../../../dma_exp_4.srcs/sources_1/bd/design_1/ipshared/ec67/hdl"incdir="../../../../dma_exp_4.srcs/sources_1/bd/design_1/ipshared/00a3/hdl"incdir="../../../../dma_exp_4.srcs/sources_1/bd/design_1/ip/design_1_zynq_ultra_ps_e_0_1/sim_tlm"incdir="../../../../dma_exp_4.srcs/sources_1/bd/design_1/ip/design_1_zynq_ultra_ps_e_0_1"
design_1_axis_data_fifo_1_0.v,verilog,xil_defaultlib,../../../bd/design_1/ip/design_1_axis_data_fifo_1_0/sim/design_1_axis_data_fifo_1_0.v,incdir="$ref_dir/../../../../dma_exp_4.srcs/sources_1/bd/design_1/ipshared/979d/hdl/verilog"incdir="$ref_dir/../../../../dma_exp_4.srcs/sources_1/bd/design_1/ipshared/b2d0/hdl/verilog"incdir="$ref_dir/../../../../dma_exp_4.srcs/sources_1/bd/design_1/ipshared/8713/hdl"incdir="$ref_dir/../../../../dma_exp_4.srcs/sources_1/bd/design_1/ipshared/85a3"incdir="$ref_dir/../../../../dma_exp_4.srcs/sources_1/bd/design_1/ipshared/ec67/hdl"incdir="$ref_dir/../../../../dma_exp_4.srcs/sources_1/bd/design_1/ipshared/00a3/hdl"incdir="../../../../dma_exp_4.srcs/sources_1/bd/design_1/ipshared/979d/hdl/verilog"incdir="../../../../dma_exp_4.srcs/sources_1/bd/design_1/ipshared/b2d0/hdl/verilog"incdir="../../../../dma_exp_4.srcs/sources_1/bd/design_1/ipshared/8713/hdl"incdir="../../../../dma_exp_4.srcs/sources_1/bd/design_1/ipshared/85a3"incdir="../../../../dma_exp_4.srcs/sources_1/bd/design_1/ipshared/ec67/hdl"incdir="../../../../dma_exp_4.srcs/sources_1/bd/design_1/ipshared/00a3/hdl"incdir="../../../../dma_exp_4.srcs/sources_1/bd/design_1/ip/design_1_zynq_ultra_ps_e_0_1/sim_tlm"incdir="../../../../dma_exp_4.srcs/sources_1/bd/design_1/ip/design_1_zynq_ultra_ps_e_0_1"
design_1_c_counter_binary_0_1.vhd,vhdl,xil_defaultlib,../../../bd/design_1/ip/design_1_c_counter_binary_0_1/sim/design_1_c_counter_binary_0_1.vhd,incdir="$ref_dir/../../../../dma_exp_4.srcs/sources_1/bd/design_1/ipshared/979d/hdl/verilog"incdir="$ref_dir/../../../../dma_exp_4.srcs/sources_1/bd/design_1/ipshared/b2d0/hdl/verilog"incdir="$ref_dir/../../../../dma_exp_4.srcs/sources_1/bd/design_1/ipshared/8713/hdl"incdir="$ref_dir/../../../../dma_exp_4.srcs/sources_1/bd/design_1/ipshared/85a3"incdir="$ref_dir/../../../../dma_exp_4.srcs/sources_1/bd/design_1/ipshared/ec67/hdl"incdir="$ref_dir/../../../../dma_exp_4.srcs/sources_1/bd/design_1/ipshared/00a3/hdl"incdir="../../../../dma_exp_4.srcs/sources_1/bd/design_1/ipshared/979d/hdl/verilog"incdir="../../../../dma_exp_4.srcs/sources_1/bd/design_1/ipshared/b2d0/hdl/verilog"incdir="../../../../dma_exp_4.srcs/sources_1/bd/design_1/ipshared/8713/hdl"incdir="../../../../dma_exp_4.srcs/sources_1/bd/design_1/ipshared/85a3"incdir="../../../../dma_exp_4.srcs/sources_1/bd/design_1/ipshared/ec67/hdl"incdir="../../../../dma_exp_4.srcs/sources_1/bd/design_1/ipshared/00a3/hdl"incdir="../../../../dma_exp_4.srcs/sources_1/bd/design_1/ip/design_1_zynq_ultra_ps_e_0_1/sim_tlm"incdir="../../../../dma_exp_4.srcs/sources_1/bd/design_1/ip/design_1_zynq_ultra_ps_e_0_1"
design_1_clk_wiz_0_1_clk_wiz.v,verilog,xil_defaultlib,../../../bd/design_1/ip/design_1_clk_wiz_0_1/design_1_clk_wiz_0_1_clk_wiz.v,incdir="$ref_dir/../../../../dma_exp_4.srcs/sources_1/bd/design_1/ipshared/979d/hdl/verilog"incdir="$ref_dir/../../../../dma_exp_4.srcs/sources_1/bd/design_1/ipshared/b2d0/hdl/verilog"incdir="$ref_dir/../../../../dma_exp_4.srcs/sources_1/bd/design_1/ipshared/8713/hdl"incdir="$ref_dir/../../../../dma_exp_4.srcs/sources_1/bd/design_1/ipshared/85a3"incdir="$ref_dir/../../../../dma_exp_4.srcs/sources_1/bd/design_1/ipshared/ec67/hdl"incdir="$ref_dir/../../../../dma_exp_4.srcs/sources_1/bd/design_1/ipshared/00a3/hdl"incdir="../../../../dma_exp_4.srcs/sources_1/bd/design_1/ipshared/979d/hdl/verilog"incdir="../../../../dma_exp_4.srcs/sources_1/bd/design_1/ipshared/b2d0/hdl/verilog"incdir="../../../../dma_exp_4.srcs/sources_1/bd/design_1/ipshared/8713/hdl"incdir="../../../../dma_exp_4.srcs/sources_1/bd/design_1/ipshared/85a3"incdir="../../../../dma_exp_4.srcs/sources_1/bd/design_1/ipshared/ec67/hdl"incdir="../../../../dma_exp_4.srcs/sources_1/bd/design_1/ipshared/00a3/hdl"incdir="../../../../dma_exp_4.srcs/sources_1/bd/design_1/ip/design_1_zynq_ultra_ps_e_0_1/sim_tlm"incdir="../../../../dma_exp_4.srcs/sources_1/bd/design_1/ip/design_1_zynq_ultra_ps_e_0_1"
design_1_clk_wiz_0_1.v,verilog,xil_defaultlib,../../../bd/design_1/ip/design_1_clk_wiz_0_1/design_1_clk_wiz_0_1.v,incdir="$ref_dir/../../../../dma_exp_4.srcs/sources_1/bd/design_1/ipshared/979d/hdl/verilog"incdir="$ref_dir/../../../../dma_exp_4.srcs/sources_1/bd/design_1/ipshared/b2d0/hdl/verilog"incdir="$ref_dir/../../../../dma_exp_4.srcs/sources_1/bd/design_1/ipshared/8713/hdl"incdir="$ref_dir/../../../../dma_exp_4.srcs/sources_1/bd/design_1/ipshared/85a3"incdir="$ref_dir/../../../../dma_exp_4.srcs/sources_1/bd/design_1/ipshared/ec67/hdl"incdir="$ref_dir/../../../../dma_exp_4.srcs/sources_1/bd/design_1/ipshared/00a3/hdl"incdir="../../../../dma_exp_4.srcs/sources_1/bd/design_1/ipshared/979d/hdl/verilog"incdir="../../../../dma_exp_4.srcs/sources_1/bd/design_1/ipshared/b2d0/hdl/verilog"incdir="../../../../dma_exp_4.srcs/sources_1/bd/design_1/ipshared/8713/hdl"incdir="../../../../dma_exp_4.srcs/sources_1/bd/design_1/ipshared/85a3"incdir="../../../../dma_exp_4.srcs/sources_1/bd/design_1/ipshared/ec67/hdl"incdir="../../../../dma_exp_4.srcs/sources_1/bd/design_1/ipshared/00a3/hdl"incdir="../../../../dma_exp_4.srcs/sources_1/bd/design_1/ip/design_1_zynq_ultra_ps_e_0_1/sim_tlm"incdir="../../../../dma_exp_4.srcs/sources_1/bd/design_1/ip/design_1_zynq_ultra_ps_e_0_1"
design_1_rst_ps8_0_100M_1.vhd,vhdl,xil_defaultlib,../../../bd/design_1/ip/design_1_rst_ps8_0_100M_1/sim/design_1_rst_ps8_0_100M_1.vhd,incdir="$ref_dir/../../../../dma_exp_4.srcs/sources_1/bd/design_1/ipshared/979d/hdl/verilog"incdir="$ref_dir/../../../../dma_exp_4.srcs/sources_1/bd/design_1/ipshared/b2d0/hdl/verilog"incdir="$ref_dir/../../../../dma_exp_4.srcs/sources_1/bd/design_1/ipshared/8713/hdl"incdir="$ref_dir/../../../../dma_exp_4.srcs/sources_1/bd/design_1/ipshared/85a3"incdir="$ref_dir/../../../../dma_exp_4.srcs/sources_1/bd/design_1/ipshared/ec67/hdl"incdir="$ref_dir/../../../../dma_exp_4.srcs/sources_1/bd/design_1/ipshared/00a3/hdl"incdir="../../../../dma_exp_4.srcs/sources_1/bd/design_1/ipshared/979d/hdl/verilog"incdir="../../../../dma_exp_4.srcs/sources_1/bd/design_1/ipshared/b2d0/hdl/verilog"incdir="../../../../dma_exp_4.srcs/sources_1/bd/design_1/ipshared/8713/hdl"incdir="../../../../dma_exp_4.srcs/sources_1/bd/design_1/ipshared/85a3"incdir="../../../../dma_exp_4.srcs/sources_1/bd/design_1/ipshared/ec67/hdl"incdir="../../../../dma_exp_4.srcs/sources_1/bd/design_1/ipshared/00a3/hdl"incdir="../../../../dma_exp_4.srcs/sources_1/bd/design_1/ip/design_1_zynq_ultra_ps_e_0_1/sim_tlm"incdir="../../../../dma_exp_4.srcs/sources_1/bd/design_1/ip/design_1_zynq_ultra_ps_e_0_1"
design_1_xlconcat_0_1.v,verilog,xil_defaultlib,../../../bd/design_1/ip/design_1_xlconcat_0_1/sim/design_1_xlconcat_0_1.v,incdir="$ref_dir/../../../../dma_exp_4.srcs/sources_1/bd/design_1/ipshared/979d/hdl/verilog"incdir="$ref_dir/../../../../dma_exp_4.srcs/sources_1/bd/design_1/ipshared/b2d0/hdl/verilog"incdir="$ref_dir/../../../../dma_exp_4.srcs/sources_1/bd/design_1/ipshared/8713/hdl"incdir="$ref_dir/../../../../dma_exp_4.srcs/sources_1/bd/design_1/ipshared/85a3"incdir="$ref_dir/../../../../dma_exp_4.srcs/sources_1/bd/design_1/ipshared/ec67/hdl"incdir="$ref_dir/../../../../dma_exp_4.srcs/sources_1/bd/design_1/ipshared/00a3/hdl"incdir="../../../../dma_exp_4.srcs/sources_1/bd/design_1/ipshared/979d/hdl/verilog"incdir="../../../../dma_exp_4.srcs/sources_1/bd/design_1/ipshared/b2d0/hdl/verilog"incdir="../../../../dma_exp_4.srcs/sources_1/bd/design_1/ipshared/8713/hdl"incdir="../../../../dma_exp_4.srcs/sources_1/bd/design_1/ipshared/85a3"incdir="../../../../dma_exp_4.srcs/sources_1/bd/design_1/ipshared/ec67/hdl"incdir="../../../../dma_exp_4.srcs/sources_1/bd/design_1/ipshared/00a3/hdl"incdir="../../../../dma_exp_4.srcs/sources_1/bd/design_1/ip/design_1_zynq_ultra_ps_e_0_1/sim_tlm"incdir="../../../../dma_exp_4.srcs/sources_1/bd/design_1/ip/design_1_zynq_ultra_ps_e_0_1"
design_1_xlconstant_0_0.v,verilog,xil_defaultlib,../../../bd/design_1/ip/design_1_xlconstant_0_0/sim/design_1_xlconstant_0_0.v,incdir="$ref_dir/../../../../dma_exp_4.srcs/sources_1/bd/design_1/ipshared/979d/hdl/verilog"incdir="$ref_dir/../../../../dma_exp_4.srcs/sources_1/bd/design_1/ipshared/b2d0/hdl/verilog"incdir="$ref_dir/../../../../dma_exp_4.srcs/sources_1/bd/design_1/ipshared/8713/hdl"incdir="$ref_dir/../../../../dma_exp_4.srcs/sources_1/bd/design_1/ipshared/85a3"incdir="$ref_dir/../../../../dma_exp_4.srcs/sources_1/bd/design_1/ipshared/ec67/hdl"incdir="$ref_dir/../../../../dma_exp_4.srcs/sources_1/bd/design_1/ipshared/00a3/hdl"incdir="../../../../dma_exp_4.srcs/sources_1/bd/design_1/ipshared/979d/hdl/verilog"incdir="../../../../dma_exp_4.srcs/sources_1/bd/design_1/ipshared/b2d0/hdl/verilog"incdir="../../../../dma_exp_4.srcs/sources_1/bd/design_1/ipshared/8713/hdl"incdir="../../../../dma_exp_4.srcs/sources_1/bd/design_1/ipshared/85a3"incdir="../../../../dma_exp_4.srcs/sources_1/bd/design_1/ipshared/ec67/hdl"incdir="../../../../dma_exp_4.srcs/sources_1/bd/design_1/ipshared/00a3/hdl"incdir="../../../../dma_exp_4.srcs/sources_1/bd/design_1/ip/design_1_zynq_ultra_ps_e_0_1/sim_tlm"incdir="../../../../dma_exp_4.srcs/sources_1/bd/design_1/ip/design_1_zynq_ultra_ps_e_0_1"
design_1_xlconstant_1_1.v,verilog,xil_defaultlib,../../../bd/design_1/ip/design_1_xlconstant_1_1/sim/design_1_xlconstant_1_1.v,incdir="$ref_dir/../../../../dma_exp_4.srcs/sources_1/bd/design_1/ipshared/979d/hdl/verilog"incdir="$ref_dir/../../../../dma_exp_4.srcs/sources_1/bd/design_1/ipshared/b2d0/hdl/verilog"incdir="$ref_dir/../../../../dma_exp_4.srcs/sources_1/bd/design_1/ipshared/8713/hdl"incdir="$ref_dir/../../../../dma_exp_4.srcs/sources_1/bd/design_1/ipshared/85a3"incdir="$ref_dir/../../../../dma_exp_4.srcs/sources_1/bd/design_1/ipshared/ec67/hdl"incdir="$ref_dir/../../../../dma_exp_4.srcs/sources_1/bd/design_1/ipshared/00a3/hdl"incdir="../../../../dma_exp_4.srcs/sources_1/bd/design_1/ipshared/979d/hdl/verilog"incdir="../../../../dma_exp_4.srcs/sources_1/bd/design_1/ipshared/b2d0/hdl/verilog"incdir="../../../../dma_exp_4.srcs/sources_1/bd/design_1/ipshared/8713/hdl"incdir="../../../../dma_exp_4.srcs/sources_1/bd/design_1/ipshared/85a3"incdir="../../../../dma_exp_4.srcs/sources_1/bd/design_1/ipshared/ec67/hdl"incdir="../../../../dma_exp_4.srcs/sources_1/bd/design_1/ipshared/00a3/hdl"incdir="../../../../dma_exp_4.srcs/sources_1/bd/design_1/ip/design_1_zynq_ultra_ps_e_0_1/sim_tlm"incdir="../../../../dma_exp_4.srcs/sources_1/bd/design_1/ip/design_1_zynq_ultra_ps_e_0_1"
design_1_zynq_ultra_ps_e_0_1_vip_wrapper.v,verilog,xil_defaultlib,../../../bd/design_1/ip/design_1_zynq_ultra_ps_e_0_1/sim/design_1_zynq_ultra_ps_e_0_1_vip_wrapper.v,incdir="$ref_dir/../../../../dma_exp_4.srcs/sources_1/bd/design_1/ipshared/979d/hdl/verilog"incdir="$ref_dir/../../../../dma_exp_4.srcs/sources_1/bd/design_1/ipshared/b2d0/hdl/verilog"incdir="$ref_dir/../../../../dma_exp_4.srcs/sources_1/bd/design_1/ipshared/8713/hdl"incdir="$ref_dir/../../../../dma_exp_4.srcs/sources_1/bd/design_1/ipshared/85a3"incdir="$ref_dir/../../../../dma_exp_4.srcs/sources_1/bd/design_1/ipshared/ec67/hdl"incdir="$ref_dir/../../../../dma_exp_4.srcs/sources_1/bd/design_1/ipshared/00a3/hdl"incdir="../../../../dma_exp_4.srcs/sources_1/bd/design_1/ipshared/979d/hdl/verilog"incdir="../../../../dma_exp_4.srcs/sources_1/bd/design_1/ipshared/b2d0/hdl/verilog"incdir="../../../../dma_exp_4.srcs/sources_1/bd/design_1/ipshared/8713/hdl"incdir="../../../../dma_exp_4.srcs/sources_1/bd/design_1/ipshared/85a3"incdir="../../../../dma_exp_4.srcs/sources_1/bd/design_1/ipshared/ec67/hdl"incdir="../../../../dma_exp_4.srcs/sources_1/bd/design_1/ipshared/00a3/hdl"incdir="../../../../dma_exp_4.srcs/sources_1/bd/design_1/ip/design_1_zynq_ultra_ps_e_0_1/sim_tlm"incdir="../../../../dma_exp_4.srcs/sources_1/bd/design_1/ip/design_1_zynq_ultra_ps_e_0_1"
design_1_xbar_0.v,verilog,xil_defaultlib,../../../bd/design_1/ip/design_1_xbar_0/sim/design_1_xbar_0.v,incdir="$ref_dir/../../../../dma_exp_4.srcs/sources_1/bd/design_1/ipshared/979d/hdl/verilog"incdir="$ref_dir/../../../../dma_exp_4.srcs/sources_1/bd/design_1/ipshared/b2d0/hdl/verilog"incdir="$ref_dir/../../../../dma_exp_4.srcs/sources_1/bd/design_1/ipshared/8713/hdl"incdir="$ref_dir/../../../../dma_exp_4.srcs/sources_1/bd/design_1/ipshared/85a3"incdir="$ref_dir/../../../../dma_exp_4.srcs/sources_1/bd/design_1/ipshared/ec67/hdl"incdir="$ref_dir/../../../../dma_exp_4.srcs/sources_1/bd/design_1/ipshared/00a3/hdl"incdir="../../../../dma_exp_4.srcs/sources_1/bd/design_1/ipshared/979d/hdl/verilog"incdir="../../../../dma_exp_4.srcs/sources_1/bd/design_1/ipshared/b2d0/hdl/verilog"incdir="../../../../dma_exp_4.srcs/sources_1/bd/design_1/ipshared/8713/hdl"incdir="../../../../dma_exp_4.srcs/sources_1/bd/design_1/ipshared/85a3"incdir="../../../../dma_exp_4.srcs/sources_1/bd/design_1/ipshared/ec67/hdl"incdir="../../../../dma_exp_4.srcs/sources_1/bd/design_1/ipshared/00a3/hdl"incdir="../../../../dma_exp_4.srcs/sources_1/bd/design_1/ip/design_1_zynq_ultra_ps_e_0_1/sim_tlm"incdir="../../../../dma_exp_4.srcs/sources_1/bd/design_1/ip/design_1_zynq_ultra_ps_e_0_1"
performance_counter_AXILiteS_s_axi.v,verilog,xil_defaultlib,../../../../dma_exp_4.srcs/sources_1/bd/design_1/ipshared/a235/hdl/verilog/performance_counter_AXILiteS_s_axi.v,incdir="$ref_dir/../../../../dma_exp_4.srcs/sources_1/bd/design_1/ipshared/979d/hdl/verilog"incdir="$ref_dir/../../../../dma_exp_4.srcs/sources_1/bd/design_1/ipshared/b2d0/hdl/verilog"incdir="$ref_dir/../../../../dma_exp_4.srcs/sources_1/bd/design_1/ipshared/8713/hdl"incdir="$ref_dir/../../../../dma_exp_4.srcs/sources_1/bd/design_1/ipshared/85a3"incdir="$ref_dir/../../../../dma_exp_4.srcs/sources_1/bd/design_1/ipshared/ec67/hdl"incdir="$ref_dir/../../../../dma_exp_4.srcs/sources_1/bd/design_1/ipshared/00a3/hdl"incdir="../../../../dma_exp_4.srcs/sources_1/bd/design_1/ipshared/979d/hdl/verilog"incdir="../../../../dma_exp_4.srcs/sources_1/bd/design_1/ipshared/b2d0/hdl/verilog"incdir="../../../../dma_exp_4.srcs/sources_1/bd/design_1/ipshared/8713/hdl"incdir="../../../../dma_exp_4.srcs/sources_1/bd/design_1/ipshared/85a3"incdir="../../../../dma_exp_4.srcs/sources_1/bd/design_1/ipshared/ec67/hdl"incdir="../../../../dma_exp_4.srcs/sources_1/bd/design_1/ipshared/00a3/hdl"incdir="../../../../dma_exp_4.srcs/sources_1/bd/design_1/ip/design_1_zynq_ultra_ps_e_0_1/sim_tlm"incdir="../../../../dma_exp_4.srcs/sources_1/bd/design_1/ip/design_1_zynq_ultra_ps_e_0_1"
performance_counter.v,verilog,xil_defaultlib,../../../../dma_exp_4.srcs/sources_1/bd/design_1/ipshared/a235/hdl/verilog/performance_counter.v,incdir="$ref_dir/../../../../dma_exp_4.srcs/sources_1/bd/design_1/ipshared/979d/hdl/verilog"incdir="$ref_dir/../../../../dma_exp_4.srcs/sources_1/bd/design_1/ipshared/b2d0/hdl/verilog"incdir="$ref_dir/../../../../dma_exp_4.srcs/sources_1/bd/design_1/ipshared/8713/hdl"incdir="$ref_dir/../../../../dma_exp_4.srcs/sources_1/bd/design_1/ipshared/85a3"incdir="$ref_dir/../../../../dma_exp_4.srcs/sources_1/bd/design_1/ipshared/ec67/hdl"incdir="$ref_dir/../../../../dma_exp_4.srcs/sources_1/bd/design_1/ipshared/00a3/hdl"incdir="../../../../dma_exp_4.srcs/sources_1/bd/design_1/ipshared/979d/hdl/verilog"incdir="../../../../dma_exp_4.srcs/sources_1/bd/design_1/ipshared/b2d0/hdl/verilog"incdir="../../../../dma_exp_4.srcs/sources_1/bd/design_1/ipshared/8713/hdl"incdir="../../../../dma_exp_4.srcs/sources_1/bd/design_1/ipshared/85a3"incdir="../../../../dma_exp_4.srcs/sources_1/bd/design_1/ipshared/ec67/hdl"incdir="../../../../dma_exp_4.srcs/sources_1/bd/design_1/ipshared/00a3/hdl"incdir="../../../../dma_exp_4.srcs/sources_1/bd/design_1/ip/design_1_zynq_ultra_ps_e_0_1/sim_tlm"incdir="../../../../dma_exp_4.srcs/sources_1/bd/design_1/ip/design_1_zynq_ultra_ps_e_0_1"
design_1_performance_counter_0_0.v,verilog,xil_defaultlib,../../../bd/design_1/ip/design_1_performance_counter_0_0/sim/design_1_performance_counter_0_0.v,incdir="$ref_dir/../../../../dma_exp_4.srcs/sources_1/bd/design_1/ipshared/979d/hdl/verilog"incdir="$ref_dir/../../../../dma_exp_4.srcs/sources_1/bd/design_1/ipshared/b2d0/hdl/verilog"incdir="$ref_dir/../../../../dma_exp_4.srcs/sources_1/bd/design_1/ipshared/8713/hdl"incdir="$ref_dir/../../../../dma_exp_4.srcs/sources_1/bd/design_1/ipshared/85a3"incdir="$ref_dir/../../../../dma_exp_4.srcs/sources_1/bd/design_1/ipshared/ec67/hdl"incdir="$ref_dir/../../../../dma_exp_4.srcs/sources_1/bd/design_1/ipshared/00a3/hdl"incdir="../../../../dma_exp_4.srcs/sources_1/bd/design_1/ipshared/979d/hdl/verilog"incdir="../../../../dma_exp_4.srcs/sources_1/bd/design_1/ipshared/b2d0/hdl/verilog"incdir="../../../../dma_exp_4.srcs/sources_1/bd/design_1/ipshared/8713/hdl"incdir="../../../../dma_exp_4.srcs/sources_1/bd/design_1/ipshared/85a3"incdir="../../../../dma_exp_4.srcs/sources_1/bd/design_1/ipshared/ec67/hdl"incdir="../../../../dma_exp_4.srcs/sources_1/bd/design_1/ipshared/00a3/hdl"incdir="../../../../dma_exp_4.srcs/sources_1/bd/design_1/ip/design_1_zynq_ultra_ps_e_0_1/sim_tlm"incdir="../../../../dma_exp_4.srcs/sources_1/bd/design_1/ip/design_1_zynq_ultra_ps_e_0_1"
design_1_auto_pc_0.v,verilog,xil_defaultlib,../../../bd/design_1/ip/design_1_auto_pc_0/sim/design_1_auto_pc_0.v,incdir="$ref_dir/../../../../dma_exp_4.srcs/sources_1/bd/design_1/ipshared/979d/hdl/verilog"incdir="$ref_dir/../../../../dma_exp_4.srcs/sources_1/bd/design_1/ipshared/b2d0/hdl/verilog"incdir="$ref_dir/../../../../dma_exp_4.srcs/sources_1/bd/design_1/ipshared/8713/hdl"incdir="$ref_dir/../../../../dma_exp_4.srcs/sources_1/bd/design_1/ipshared/85a3"incdir="$ref_dir/../../../../dma_exp_4.srcs/sources_1/bd/design_1/ipshared/ec67/hdl"incdir="$ref_dir/../../../../dma_exp_4.srcs/sources_1/bd/design_1/ipshared/00a3/hdl"incdir="../../../../dma_exp_4.srcs/sources_1/bd/design_1/ipshared/979d/hdl/verilog"incdir="../../../../dma_exp_4.srcs/sources_1/bd/design_1/ipshared/b2d0/hdl/verilog"incdir="../../../../dma_exp_4.srcs/sources_1/bd/design_1/ipshared/8713/hdl"incdir="../../../../dma_exp_4.srcs/sources_1/bd/design_1/ipshared/85a3"incdir="../../../../dma_exp_4.srcs/sources_1/bd/design_1/ipshared/ec67/hdl"incdir="../../../../dma_exp_4.srcs/sources_1/bd/design_1/ipshared/00a3/hdl"incdir="../../../../dma_exp_4.srcs/sources_1/bd/design_1/ip/design_1_zynq_ultra_ps_e_0_1/sim_tlm"incdir="../../../../dma_exp_4.srcs/sources_1/bd/design_1/ip/design_1_zynq_ultra_ps_e_0_1"
glbl.v,Verilog,xil_defaultlib,glbl.v
